{
    "room1": {
        "name": "Standard Room",
        "price": 250,
        "bedchoices": [
            "King Bed",
            "2 Twin Beds",
            "Rollaway Bed"
        ],
        "max": {
            "adults": 2,
            "infants": 1
        },
        "included": [
            "wifi",
            "breakfast"
        ],
        "images": [
            "http://www.concierge.com/images/destinations/hotels/asia/maldives/conrad_maldives/maldives_hotel_001p.jpg",
            "http://srilankaandmaldives.com/wp-content/uploads/2010/06/Conrad-Maldives-Rangali-Island-Superior-Water-Villa.jpg",
            "http://www.kempinski.com/assets/kempinski-hotel-corvinus/GuestServices/_resampled/SetHeight800-Lobby-Kempinski-Hotel-Corvinus-Budapest.jpg",
            "http://cdn.homedit.com/wp-content/uploads/2010/09/conrad-maldives_rangali-island_2.jpg"
        ]
    },
    "room2": {
        "name": "Deluxe room",
        "price": 250,
        "bedchoices": [
            "King Bed",
            "2 Twin Beds",
            "Rollaway Bed"
        ],
        "max": {
            "adults": 2,
            "infants": 1
        },
        "included": [
            "wifi",
            "breakfast"
        ],
        "images": [
            "http://www.concierge.com/images/destinations/hotels/asia/maldives/conrad_maldives/maldives_hotel_001p.jpg",
            "http://srilankaandmaldives.com/wp-content/uploads/2010/06/Conrad-Maldives-Rangali-Island-Superior-Water-Villa.jpg",
            "http://www.kempinski.com/assets/kempinski-hotel-corvinus/GuestServices/_resampled/SetHeight800-Lobby-Kempinski-Hotel-Corvinus-Budapest.jpg",
            "http://cdn.homedit.com/wp-content/uploads/2010/09/conrad-maldives_rangali-island_2.jpg"
        ]
    },
    "room3": {
        "name": "Executive Room",
        "price": 250,
        "bedchoices": [
            "King Bed",
            "2 Twin Beds",
            "Rollaway Bed"
        ],
        "max": {
            "adults": 2,
            "infants": 1
        },
        "included": [
            "wifi",
            "breakfast"
        ],
        "images": [
            "http://www.concierge.com/images/destinations/hotels/asia/maldives/conrad_maldives/maldives_hotel_001p.jpg",
            "http://srilankaandmaldives.com/wp-content/uploads/2010/06/Conrad-Maldives-Rangali-Island-Superior-Water-Villa.jpg",
            "http://www.kempinski.com/assets/kempinski-hotel-corvinus/GuestServices/_resampled/SetHeight800-Lobby-Kempinski-Hotel-Corvinus-Budapest.jpg",
            "http://cdn.homedit.com/wp-content/uploads/2010/09/conrad-maldives_rangali-island_2.jpg"
        ]
    },
    "room4": {
        "name": "Presidential Room",
        "price": 250,
        "bedchoices": [
            "King Bed",
            "2 Twin Beds",
            "Rollaway Bed"
        ],
        "max": {
            "adults": 2,
            "infants": 1
        },
        "included": [
            "wifi",
            "breakfast"
        ],
        "images": [
            "http://www.concierge.com/images/destinations/hotels/asia/maldives/conrad_maldives/maldives_hotel_001p.jpg",
            "http://srilankaandmaldives.com/wp-content/uploads/2010/06/Conrad-Maldives-Rangali-Island-Superior-Water-Villa.jpg",
            "http://www.kempinski.com/assets/kempinski-hotel-corvinus/GuestServices/_resampled/SetHeight800-Lobby-Kempinski-Hotel-Corvinus-Budapest.jpg",
            "http://cdn.homedit.com/wp-content/uploads/2010/09/conrad-maldives_rangali-island_2.jpg"
        ]
    }
}