{
    "main": 
    [
        {
            "src" : "http://www.download3dhouse.com/wp-content/uploads/2013/03/Front-design-of-luxury-restaurant.jpg"
        }
    ],

  	"restaurants":
  	[
    	{
            "url":"bandos-island-resort",
    		"name": "Ice Cone",
    		"img": "http://www.barcelo.com/BarceloHotels/en_GB/Images/oviedo-barcelo-hotels-views.jpg21-29254.jpg",
    		"price": 199,
    		"offer": 50,
    		"standard": [1, 2, 3, 4],
    		"roomsleft": 4 
    	},
    	{
            "url":"bandos-island-resort",
    		"name": "Club Faru",
    		"img": "http://www.barcelo.com/BarceloHotels/en_GB/Images/oviedo-barcelo-hotels-views.jpg21-29254.jpg",
    		"price": 299,
    		"offer": 0,
    		"standard": [1, 2, 3],
    		"roomsleft": 4 
    	},
        {
            "url":"bandos-island-resort",
            "name": "Club Faru",
            "img": "http://www.barcelo.com/BarceloHotels/en_GB/Images/oviedo-barcelo-hotels-views.jpg21-29254.jpg",
            "price": 299,
            "offer": 40,
            "standard": [1, 2, 3],
            "roomsleft": 4 
        },
        {
            "url":"bandos-island-resort",
            "name": "Club Faru",
            "img": "http://www.barcelo.com/BarceloHotels/en_GB/Images/oviedo-barcelo-hotels-views.jpg21-29254.jpg",
            "price": 299,
            "offer": 0,
            "standard": [1, 2, 3],
            "roomsleft": 4 
        },
        {
            "url":"bandos-island-resort",
            "name": "Club Faru",
            "img": "http://www.barcelo.com/BarceloHotels/en_GB/Images/oviedo-barcelo-hotels-views.jpg21-29254.jpg",
            "price": 299,
            "offer": 0,
            "standard": [1, 2, 3],
            "roomsleft": 4 
        }
  	]
}